[gd_resource type="Resource" script_class="Item" load_steps=3 format=3 uid="uid://d2u6xmwqpwa44"]

[ext_resource type="Texture2D" uid="uid://brdsvwnb5my7d" path="res://assets/item/lavendel.png" id="1_7b4g5"]
[ext_resource type="Script" path="res://data/resources/item.gd" id="1_jth3c"]

[resource]
script = ExtResource("1_jth3c")
title = "Lavendel"
description = "Smells good!"
icon = ExtResource("1_7b4g5")
effect = 1
