[gd_resource type="Resource" script_class="Item" load_steps=3 format=3 uid="uid://b4xvcoanrrgn5"]

[ext_resource type="Texture2D" uid="uid://cuireqs3lgp5j" path="res://assets/item/mushroom.png" id="1_y1vae"]
[ext_resource type="Script" path="res://data/resources/item.gd" id="2_pghdq"]

[resource]
script = ExtResource("2_pghdq")
title = "Mushroom"
description = "Looks poisonous to me!"
icon = ExtResource("1_y1vae")
effect = -1
