[gd_resource type="Resource" script_class="Item" load_steps=3 format=3 uid="uid://3a8a5ad8pdyo"]

[ext_resource type="Script" path="res://data/resources/item.gd" id="1_tljgy"]
[ext_resource type="Texture2D" uid="uid://bkcwceys4c8c8" path="res://assets/item/paket.png" id="2_3gst4"]

[resource]
script = ExtResource("1_tljgy")
title = "Package"
description = "A small package containing whatever you desire."
icon = ExtResource("2_3gst4")
